ROM/dump.vcd
$date
	Thu Mar 06 16:50:11 2025
$end
$version
	ModelSim Version 2020.1
$end
$timescale
	1ps
$end

$scope module rom_tb $end
$var reg 1 ! clk $end
$var reg 1 " en $end
$var reg 4 # addr [3:0] $end
$var wire 1 $ data [3] $end
$var wire 1 % data [2] $end
$var wire 1 & data [1] $end
$var wire 1 ' data [0] $end
$upscope $end
$enddefinitions $end
#0
$dumpvars
1!
0"
bx #
x'
x&
x%
x$
$end
#5
0!
#10
1"
b1010 #
1!
0'
1&
1%
1$
#15
0!
#20
b110 #
1!
0&
#25
0!
#30
b11 #
1!
1&
0%
0$
#35
0!
#40
0"
b1111 #
1!
x'
x&
x%
x$
#45
0!
#50
1"
b1000 #
1!
0'
1&
0%
1$
#55
0!
#60
b0 #
1!
0$
#65
0!
#70
bx #
1!
x'
x&
x%
x$
